%YAML 1.1
%TAG !u! tag:unity3d.com,2011:
--- !u!114 &11400000
MonoBehaviour:
  m_ObjectHideFlags: 0
  m_CorrespondingSourceObject: {fileID: 0}
  m_PrefabInstance: {fileID: 0}
  m_PrefabAsset: {fileID: 0}
  m_GameObject: {fileID: 0}
  m_Enabled: 1
  m_EditorHideFlags: 0
  m_Script: {fileID: 11500000, guid: 4165e923969785b40a3792235248e414, type: 3}
  m_Name: Alfred2
  m_EditorClassIdentifier: 
  prefab: {fileID: 7526017826034050340, guid: 918f86bf038f8c14588726d0208a08ff, type: 3}
  maxHealth: 320
  maxEnergy: 160
  critChance: 15
  power: 15
  name: Alfred2
  classType: 0
  weaponType: 0
